adding trusted host: 'acc-py-repo.cern.ch' (from line 8 of transitive.txt)
Using indexes:
  https://acc-py-repo.cern.ch/repository/vr-py-releases/simple
  Looking in indexes: https://acc-py-repo.cern.ch/repository/vr-py-releases/simple

                          ROUND 1                           
  Collecting ucap-python-server==3.2.1 (from -r transitive.in (line 1))
    Downloading https://acc-py-repo.cern.ch/repository/vr-py-releases/resources/ucap-python-server/ucap-python-server-3.2.1.tar.gz (20 kB)
    Preparing metadata (setup.py): started
    Preparing metadata (setup.py): finished with status 'done'
  Collecting cern-sps-spill-ucap==0.0.21 (from -r transitive.in (line 2))
    Obtaining dependency information for cern-sps-spill-ucap==0.0.21 from https://acc-py-repo.cern.ch/repository/vr-py-releases/resources/cern-sps-spill-ucap/cern_sps_spill_ucap-0.0.21-py3-none-any.whl.metadata
    Downloading https://acc-py-repo.cern.ch/repository/vr-py-releases/resources/cern-sps-spill-ucap/cern_sps_spill_ucap-0.0.21-py3-none-any.whl.metadata (1.6 kB)
  Collecting ucap==3.2.1 (from ucap-python-server==3.2.1->-r transitive.in (line 1))
    Downloading https://acc-py-repo.cern.ch/repository/vr-py-releases/resources/ucap/ucap-3.2.1.tar.gz (46 kB)
       ━━━━━━━━━━━━━━━━━━━━━━━━━━━━━━━━━━━━━━━━ 46.8/46.8 kB 3.7 MB/s eta 0:00:00
    Preparing metadata (setup.py): started
    Preparing metadata (setup.py): finished with status 'done'
  Collecting requests==2.25.0 (from ucap-python-server==3.2.1->-r transitive.in (line 1))
    Downloading https://acc-py-repo.cern.ch/repository/vr-py-releases/resources/requests/requests-2.25.0-py2.py3-none-any.whl (61 kB)
       ━━━━━━━━━━━━━━━━━━━━━━━━━━━━━━━━━━━━━━━━ 61.1/61.1 kB 6.9 MB/s eta 0:00:00
  Collecting Flask==1.1.2 (from ucap-python-server==3.2.1->-r transitive.in (line 1))
    Downloading https://acc-py-repo.cern.ch/repository/vr-py-releases/resources/flask/Flask-1.1.2-py2.py3-none-any.whl (94 kB)
       ━━━━━━━━━━━━━━━━━━━━━━━━━━━━━━━━━━━━━━━━ 94.6/94.6 kB 8.8 MB/s eta 0:00:00
  Collecting setproctitle==1.1.10 (from ucap-python-server==3.2.1->-r transitive.in (line 1))
    Downloading https://acc-py-repo.cern.ch/repository/vr-py-releases/resources/setproctitle/setproctitle-1.1.10.zip (34 kB)
    Preparing metadata (setup.py): started
    Preparing metadata (setup.py): finished with status 'done'
  Collecting certifi==2021.10.8 (from ucap-python-server==3.2.1->-r transitive.in (line 1))
    Downloading https://acc-py-repo.cern.ch/repository/vr-py-releases/resources/certifi/certifi-2021.10.8-py2.py3-none-any.whl (149 kB)
       ━━━━━━━━━━━━━━━━━━━━━━━━━━━━━━━━━━━━━━━━ 149.2/149.2 kB 12.8 MB/s eta 0:00:00
  Collecting chardet==3.0.4 (from ucap-python-server==3.2.1->-r transitive.in (line 1))
    Downloading https://acc-py-repo.cern.ch/repository/vr-py-releases/resources/chardet/chardet-3.0.4-py2.py3-none-any.whl (133 kB)
       ━━━━━━━━━━━━━━━━━━━━━━━━━━━━━━━━━━━━━━━━ 133.4/133.4 kB 12.5 MB/s eta 0:00:00
  Collecting click==8.0.4 (from ucap-python-server==3.2.1->-r transitive.in (line 1))
    Downloading https://acc-py-repo.cern.ch/repository/vr-py-releases/resources/click/click-8.0.4-py3-none-any.whl (97 kB)
       ━━━━━━━━━━━━━━━━━━━━━━━━━━━━━━━━━━━━━━━━ 97.5/97.5 kB 9.1 MB/s eta 0:00:00
  Collecting idna==2.10 (from ucap-python-server==3.2.1->-r transitive.in (line 1))
    Downloading https://acc-py-repo.cern.ch/repository/vr-py-releases/resources/idna/idna-2.10-py2.py3-none-any.whl (58 kB)
       ━━━━━━━━━━━━━━━━━━━━━━━━━━━━━━━━━━━━━━━━ 58.8/58.8 kB 3.5 MB/s eta 0:00:00
  Collecting importlib-metadata==4.11.3 (from ucap-python-server==3.2.1->-r transitive.in (line 1))
    Downloading https://acc-py-repo.cern.ch/repository/vr-py-releases/resources/importlib-metadata/importlib_metadata-4.11.3-py3-none-any.whl (18 kB)
  Collecting itsdangerous==2.0.1 (from ucap-python-server==3.2.1->-r transitive.in (line 1))
    Downloading https://acc-py-repo.cern.ch/repository/vr-py-releases/resources/itsdangerous/itsdangerous-2.0.1-py3-none-any.whl (18 kB)
  Collecting Jinja2==3.0.3 (from ucap-python-server==3.2.1->-r transitive.in (line 1))
    Downloading https://acc-py-repo.cern.ch/repository/vr-py-releases/resources/jinja2/Jinja2-3.0.3-py3-none-any.whl (133 kB)
       ━━━━━━━━━━━━━━━━━━━━━━━━━━━━━━━━━━━━━━━━ 133.6/133.6 kB 7.3 MB/s eta 0:00:00
  Collecting MarkupSafe==2.0.1 (from ucap-python-server==3.2.1->-r transitive.in (line 1))
    Downloading https://acc-py-repo.cern.ch/repository/vr-py-releases/resources/markupsafe/MarkupSafe-2.0.1-cp39-cp39-manylinux_2_5_x86_64.manylinux1_x86_64.manylinux_2_12_x86_64.manylinux2010_x86_64.whl (30 kB)
  Collecting typing-extensions==4.1.1 (from ucap-python-server==3.2.1->-r transitive.in (line 1))
    Downloading https://acc-py-repo.cern.ch/repository/vr-py-releases/resources/typing-extensions/typing_extensions-4.1.1-py3-none-any.whl (26 kB)
  Collecting urllib3==1.26.9 (from ucap-python-server==3.2.1->-r transitive.in (line 1))
    Downloading https://acc-py-repo.cern.ch/repository/vr-py-releases/resources/urllib3/urllib3-1.26.9-py2.py3-none-any.whl (138 kB)
       ━━━━━━━━━━━━━━━━━━━━━━━━━━━━━━━━━━━━━━━━ 139.0/139.0 kB 11.1 MB/s eta 0:00:00
  Collecting Werkzeug==2.0.3 (from ucap-python-server==3.2.1->-r transitive.in (line 1))
    Downloading https://acc-py-repo.cern.ch/repository/vr-py-releases/resources/werkzeug/Werkzeug-2.0.3-py3-none-any.whl (289 kB)
       ━━━━━━━━━━━━━━━━━━━━━━━━━━━━━━━━━━━━━━━━ 289.2/289.2 kB 18.2 MB/s eta 0:00:00
  Collecting zipp==3.7.0 (from ucap-python-server==3.2.1->-r transitive.in (line 1))
    Downloading https://acc-py-repo.cern.ch/repository/vr-py-releases/resources/zipp/zipp-3.7.0-py3-none-any.whl (5.3 kB)
  Collecting numpy (from cern-sps-spill-ucap==0.0.21->-r transitive.in (line 2))
    Obtaining dependency information for numpy from https://acc-py-repo.cern.ch/repository/vr-py-releases/resources/numpy/numpy-1.25.1-cp39-cp39-manylinux_2_17_x86_64.manylinux2014_x86_64.whl.metadata
    Downloading https://acc-py-repo.cern.ch/repository/vr-py-releases/resources/numpy/numpy-1.25.1-cp39-cp39-manylinux_2_17_x86_64.manylinux2014_x86_64.whl.metadata (5.6 kB)
  Collecting Py-BOBYQA (from cern-sps-spill-ucap==0.0.21->-r transitive.in (line 2))
    Downloading https://acc-py-repo.cern.ch/repository/vr-py-releases/resources/py-bobyqa/Py-BOBYQA-1.4.tar.gz (38 kB)
    Preparing metadata (setup.py): started
    Preparing metadata (setup.py): finished with status 'done'
  Collecting acc-geoff4ucap (from cern-sps-spill-ucap==0.0.21->-r transitive.in (line 2))
    Obtaining dependency information for acc-geoff4ucap from https://acc-py-repo.cern.ch/repository/vr-py-releases/resources/acc-geoff4ucap/acc_geoff4ucap-0.1.24-py3-none-any.whl.metadata
    Downloading https://acc-py-repo.cern.ch/repository/vr-py-releases/resources/acc-geoff4ucap/acc_geoff4ucap-0.1.24-py3-none-any.whl.metadata (5.7 kB)
  Collecting cernml-coi-utils (from cern-sps-spill-ucap==0.0.21->-r transitive.in (line 2))
    Obtaining dependency information for cernml-coi-utils from https://acc-py-repo.cern.ch/repository/vr-py-releases/resources/cernml-coi-utils/cernml_coi_utils-0.2.12-py3-none-any.whl.metadata
    Downloading https://acc-py-repo.cern.ch/repository/vr-py-releases/resources/cernml-coi-utils/cernml_coi_utils-0.2.12-py3-none-any.whl.metadata (8.6 kB)
  Collecting torch (from cern-sps-spill-ucap==0.0.21->-r transitive.in (line 2))
    Downloading https://acc-py-repo.cern.ch/repository/vr-py-releases/resources/torch/torch-2.0.1-cp39-cp39-manylinux1_x86_64.whl (619.9 MB)
       ━━━━━━━━━━━━━━━━━━━━━━━━━━━━━━━━━━━━━━━━ 619.9/619.9 MB 821.3 kB/s eta 0:00:00
  Collecting gpytorch (from cern-sps-spill-ucap==0.0.21->-r transitive.in (line 2))
    Downloading https://acc-py-repo.cern.ch/repository/vr-py-releases/resources/gpytorch/gpytorch-1.10-py3-none-any.whl (255 kB)
       ━━━━━━━━━━━━━━━━━━━━━━━━━━━━━━━━━━━━━━━━ 255.2/255.2 kB 29.4 MB/s eta 0:00:00
  Collecting botorch (from cern-sps-spill-ucap==0.0.21->-r transitive.in (line 2))
    Downloading https://acc-py-repo.cern.ch/repository/vr-py-releases/resources/botorch/botorch-0.8.5-py3-none-any.whl (530 kB)
       ━━━━━━━━━━━━━━━━━━━━━━━━━━━━━━━━━━━━━━━━ 530.3/530.3 kB 237.1 kB/s eta 0:00:00
  Collecting pyrda3==0.2.* (from ucap==3.2.1->ucap-python-server==3.2.1->-r transitive.in (line 1))
    Obtaining dependency information for pyrda3==0.2.* from https://acc-py-repo.cern.ch/repository/vr-py-releases/resources/pyrda3/pyrda3-0.2.0-cp39-cp39-manylinux_2_17_x86_64.manylinux2014_x86_64.whl.metadata
    Downloading https://acc-py-repo.cern.ch/repository/vr-py-releases/resources/pyrda3/pyrda3-0.2.0-cp39-cp39-manylinux_2_17_x86_64.manylinux2014_x86_64.whl.metadata (1.0 kB)
  Collecting scikit-optimize (from acc-geoff4ucap->cern-sps-spill-ucap==0.0.21->-r transitive.in (line 2))
    Downloading https://acc-py-repo.cern.ch/repository/vr-py-releases/resources/scikit-optimize/scikit_optimize-0.9.0-py2.py3-none-any.whl (100 kB)
       ━━━━━━━━━━━━━━━━━━━━━━━━━━━━━━━━━━━━━━━━ 100.3/100.3 kB 152.1 kB/s eta 0:00:00
  Collecting cernml-coi (from acc-geoff4ucap->cern-sps-spill-ucap==0.0.21->-r transitive.in (line 2))
    Obtaining dependency information for cernml-coi from https://acc-py-repo.cern.ch/repository/vr-py-releases/resources/cernml-coi/cernml_coi-0.8.14-py3-none-any.whl.metadata
    Downloading https://acc-py-repo.cern.ch/repository/vr-py-releases/resources/cernml-coi/cernml_coi-0.8.14-py3-none-any.whl.metadata (9.4 kB)
  Collecting cernml-extremum-seeking (from acc-geoff4ucap->cern-sps-spill-ucap==0.0.21->-r transitive.in (line 2))
    Obtaining dependency information for cernml-extremum-seeking from https://acc-py-repo.cern.ch/repository/vr-py-releases/resources/cernml-extremum-seeking/cernml_extremum_seeking-3.0.3-py3-none-any.whl.metadata
    Downloading https://acc-py-repo.cern.ch/repository/vr-py-releases/resources/cernml-extremum-seeking/cernml_extremum_seeking-3.0.3-py3-none-any.whl.metadata (7.2 kB)
  Collecting multipledispatch (from botorch->cern-sps-spill-ucap==0.0.21->-r transitive.in (line 2))
    Obtaining dependency information for multipledispatch from https://acc-py-repo.cern.ch/repository/vr-py-releases/resources/multipledispatch/multipledispatch-1.0.0-py3-none-any.whl.metadata
    Downloading https://acc-py-repo.cern.ch/repository/vr-py-releases/resources/multipledispatch/multipledispatch-1.0.0-py3-none-any.whl.metadata (3.8 kB)
  Collecting scipy (from botorch->cern-sps-spill-ucap==0.0.21->-r transitive.in (line 2))
    Obtaining dependency information for scipy from https://acc-py-repo.cern.ch/repository/vr-py-releases/resources/scipy/scipy-1.11.1-cp39-cp39-manylinux_2_17_x86_64.manylinux2014_x86_64.whl.metadata
    Downloading https://acc-py-repo.cern.ch/repository/vr-py-releases/resources/scipy/scipy-1.11.1-cp39-cp39-manylinux_2_17_x86_64.manylinux2014_x86_64.whl.metadata (59 kB)
       ━━━━━━━━━━━━━━━━━━━━━━━━━━━━━━━━━━━━━━━━ 59.1/59.1 kB 2.0 MB/s eta 0:00:00
  Collecting pyro-ppl>=1.8.4 (from botorch->cern-sps-spill-ucap==0.0.21->-r transitive.in (line 2))
    Obtaining dependency information for pyro-ppl>=1.8.4 from https://acc-py-repo.cern.ch/repository/vr-py-releases/resources/pyro-ppl/pyro_ppl-1.8.5-py3-none-any.whl.metadata
    Downloading https://acc-py-repo.cern.ch/repository/vr-py-releases/resources/pyro-ppl/pyro_ppl-1.8.5-py3-none-any.whl.metadata (7.8 kB)
  Collecting linear-operator==0.4.0 (from botorch->cern-sps-spill-ucap==0.0.21->-r transitive.in (line 2))
    Downloading https://acc-py-repo.cern.ch/repository/vr-py-releases/resources/linear-operator/linear_operator-0.4.0-py3-none-any.whl (156 kB)
       ━━━━━━━━━━━━━━━━━━━━━━━━━━━━━━━━━━━━━━━━ 156.7/156.7 kB 25.2 MB/s eta 0:00:00
  Collecting scikit-learn (from gpytorch->cern-sps-spill-ucap==0.0.21->-r transitive.in (line 2))
    Obtaining dependency information for scikit-learn from https://acc-py-repo.cern.ch/repository/vr-py-releases/resources/scikit-learn/scikit_learn-1.3.0-cp39-cp39-manylinux_2_17_x86_64.manylinux2014_x86_64.whl.metadata
    Downloading https://acc-py-repo.cern.ch/repository/vr-py-releases/resources/scikit-learn/scikit_learn-1.3.0-cp39-cp39-manylinux_2_17_x86_64.manylinux2014_x86_64.whl.metadata (11 kB)
  Collecting filelock (from torch->cern-sps-spill-ucap==0.0.21->-r transitive.in (line 2))
    Obtaining dependency information for filelock from https://acc-py-repo.cern.ch/repository/vr-py-releases/resources/filelock/filelock-3.12.2-py3-none-any.whl.metadata
    Downloading https://acc-py-repo.cern.ch/repository/vr-py-releases/resources/filelock/filelock-3.12.2-py3-none-any.whl.metadata (2.7 kB)
  Collecting sympy (from torch->cern-sps-spill-ucap==0.0.21->-r transitive.in (line 2))
    Downloading https://acc-py-repo.cern.ch/repository/vr-py-releases/resources/sympy/sympy-1.12-py3-none-any.whl (5.7 MB)
       ━━━━━━━━━━━━━━━━━━━━━━━━━━━━━━━━━━━━━━━━ 5.7/5.7 MB 50.9 MB/s eta 0:00:00
  Collecting networkx (from torch->cern-sps-spill-ucap==0.0.21->-r transitive.in (line 2))
    Downloading https://acc-py-repo.cern.ch/repository/vr-py-releases/resources/networkx/networkx-3.1-py3-none-any.whl (2.1 MB)
       ━━━━━━━━━━━━━━━━━━━━━━━━━━━━━━━━━━━━━━━━ 2.1/2.1 MB 38.4 MB/s eta 0:00:00
  Collecting nvidia-cuda-nvrtc-cu11==11.7.99 (from torch->cern-sps-spill-ucap==0.0.21->-r transitive.in (line 2))
    Downloading https://acc-py-repo.cern.ch/repository/vr-py-releases/resources/nvidia-cuda-nvrtc-cu11/nvidia_cuda_nvrtc_cu11-11.7.99-2-py3-none-manylinux1_x86_64.whl (21.0 MB)
       ━━━━━━━━━━━━━━━━━━━━━━━━━━━━━━━━━━━━━━━━ 21.0/21.0 MB 25.9 MB/s eta 0:00:00
  Collecting nvidia-cuda-runtime-cu11==11.7.99 (from torch->cern-sps-spill-ucap==0.0.21->-r transitive.in (line 2))
    Downloading https://acc-py-repo.cern.ch/repository/vr-py-releases/resources/nvidia-cuda-runtime-cu11/nvidia_cuda_runtime_cu11-11.7.99-py3-none-manylinux1_x86_64.whl (849 kB)
       ━━━━━━━━━━━━━━━━━━━━━━━━━━━━━━━━━━━━━━━━ 849.3/849.3 kB 43.1 MB/s eta 0:00:00
  Collecting nvidia-cuda-cupti-cu11==11.7.101 (from torch->cern-sps-spill-ucap==0.0.21->-r transitive.in (line 2))
    Downloading https://acc-py-repo.cern.ch/repository/vr-py-releases/resources/nvidia-cuda-cupti-cu11/nvidia_cuda_cupti_cu11-11.7.101-py3-none-manylinux1_x86_64.whl (11.8 MB)
       ━━━━━━━━━━━━━━━━━━━━━━━━━━━━━━━━━━━━━━━━ 11.8/11.8 MB 41.8 MB/s eta 0:00:00
  Collecting nvidia-cudnn-cu11==8.5.0.96 (from torch->cern-sps-spill-ucap==0.0.21->-r transitive.in (line 2))
    Downloading https://acc-py-repo.cern.ch/repository/vr-py-releases/resources/nvidia-cudnn-cu11/nvidia_cudnn_cu11-8.5.0.96-2-py3-none-manylinux1_x86_64.whl (557.1 MB)
       ━━━━━━━━━━━━━━━━━━━━━━━━━━━━━━━━━━━━━━━━ 557.1/557.1 MB 1.0 MB/s eta 0:00:00
  Collecting nvidia-cublas-cu11==11.10.3.66 (from torch->cern-sps-spill-ucap==0.0.21->-r transitive.in (line 2))
    Downloading https://acc-py-repo.cern.ch/repository/vr-py-releases/resources/nvidia-cublas-cu11/nvidia_cublas_cu11-11.10.3.66-py3-none-manylinux1_x86_64.whl (317.1 MB)
       ━━━━━━━━━━━━━━━━━━━━━━━━━━━━━━━━━━━━━━━━ 317.1/317.1 MB 2.0 MB/s eta 0:00:00
  Collecting nvidia-cufft-cu11==10.9.0.58 (from torch->cern-sps-spill-ucap==0.0.21->-r transitive.in (line 2))
    Downloading https://acc-py-repo.cern.ch/repository/vr-py-releases/resources/nvidia-cufft-cu11/nvidia_cufft_cu11-10.9.0.58-py3-none-manylinux1_x86_64.whl (168.4 MB)
       ━━━━━━━━━━━━━━━━━━━━━━━━━━━━━━━━━━━━━━━━ 168.4/168.4 MB 3.8 MB/s eta 0:00:00
  Collecting nvidia-curand-cu11==10.2.10.91 (from torch->cern-sps-spill-ucap==0.0.21->-r transitive.in (line 2))
    Downloading https://acc-py-repo.cern.ch/repository/vr-py-releases/resources/nvidia-curand-cu11/nvidia_curand_cu11-10.2.10.91-py3-none-manylinux1_x86_64.whl (54.6 MB)
       ━━━━━━━━━━━━━━━━━━━━━━━━━━━━━━━━━━━━━━━━ 54.6/54.6 MB 3.5 MB/s eta 0:00:00
  Collecting nvidia-cusolver-cu11==11.4.0.1 (from torch->cern-sps-spill-ucap==0.0.21->-r transitive.in (line 2))
    Downloading https://acc-py-repo.cern.ch/repository/vr-py-releases/resources/nvidia-cusolver-cu11/nvidia_cusolver_cu11-11.4.0.1-2-py3-none-manylinux1_x86_64.whl (102.6 MB)
       ━━━━━━━━━━━━━━━━━━━━━━━━━━━━━━━━━━━━━━━━ 102.6/102.6 MB 3.0 MB/s eta 0:00:00
  Collecting nvidia-cusparse-cu11==11.7.4.91 (from torch->cern-sps-spill-ucap==0.0.21->-r transitive.in (line 2))
    Downloading https://acc-py-repo.cern.ch/repository/vr-py-releases/resources/nvidia-cusparse-cu11/nvidia_cusparse_cu11-11.7.4.91-py3-none-manylinux1_x86_64.whl (173.2 MB)
       ━━━━━━━━━━━━━━━━━━━━━━━━━━━━━━━━━━━━━━━━ 173.2/173.2 MB 3.8 MB/s eta 0:00:00
  Collecting nvidia-nccl-cu11==2.14.3 (from torch->cern-sps-spill-ucap==0.0.21->-r transitive.in (line 2))
    Downloading https://acc-py-repo.cern.ch/repository/vr-py-releases/resources/nvidia-nccl-cu11/nvidia_nccl_cu11-2.14.3-py3-none-manylinux1_x86_64.whl (177.1 MB)
       ━━━━━━━━━━━━━━━━━━━━━━━━━━━━━━━━━━━━━━━━ 177.1/177.1 MB 3.6 MB/s eta 0:00:00
  Collecting nvidia-nvtx-cu11==11.7.91 (from torch->cern-sps-spill-ucap==0.0.21->-r transitive.in (line 2))
    Downloading https://acc-py-repo.cern.ch/repository/vr-py-releases/resources/nvidia-nvtx-cu11/nvidia_nvtx_cu11-11.7.91-py3-none-manylinux1_x86_64.whl (98 kB)
       ━━━━━━━━━━━━━━━━━━━━━━━━━━━━━━━━━━━━━━━━ 98.6/98.6 kB 18.8 MB/s eta 0:00:00
  Collecting triton==2.0.0 (from torch->cern-sps-spill-ucap==0.0.21->-r transitive.in (line 2))
    Downloading https://acc-py-repo.cern.ch/repository/vr-py-releases/resources/triton/triton-2.0.0-1-cp39-cp39-manylinux2014_x86_64.manylinux_2_17_x86_64.whl (63.3 MB)
       ━━━━━━━━━━━━━━━━━━━━━━━━━━━━━━━━━━━━━━━━ 63.3/63.3 MB 4.9 MB/s eta 0:00:00
  Collecting setuptools (from nvidia-cublas-cu11==11.10.3.66->torch->cern-sps-spill-ucap==0.0.21->-r transitive.in (line 2))
    Obtaining dependency information for setuptools from https://acc-py-repo.cern.ch/repository/vr-py-releases/resources/setuptools/setuptools-68.0.0-py3-none-any.whl.metadata
    Downloading https://acc-py-repo.cern.ch/repository/vr-py-releases/resources/setuptools/setuptools-68.0.0-py3-none-any.whl.metadata (6.4 kB)
  Collecting wheel (from nvidia-cublas-cu11==11.10.3.66->torch->cern-sps-spill-ucap==0.0.21->-r transitive.in (line 2))
    Downloading https://acc-py-repo.cern.ch/repository/vr-py-releases/resources/wheel/wheel-0.40.0-py3-none-any.whl (64 kB)
       ━━━━━━━━━━━━━━━━━━━━━━━━━━━━━━━━━━━━━━━━ 64.5/64.5 kB 13.7 MB/s eta 0:00:00
  Collecting cmake (from triton==2.0.0->torch->cern-sps-spill-ucap==0.0.21->-r transitive.in (line 2))
    Obtaining dependency information for cmake from https://acc-py-repo.cern.ch/repository/vr-py-releases/resources/cmake/cmake-3.27.0-py2.py3-none-manylinux2014_x86_64.manylinux_2_17_x86_64.whl.metadata
    Downloading https://acc-py-repo.cern.ch/repository/vr-py-releases/resources/cmake/cmake-3.27.0-py2.py3-none-manylinux2014_x86_64.manylinux_2_17_x86_64.whl.metadata (6.7 kB)
  Collecting lit (from triton==2.0.0->torch->cern-sps-spill-ucap==0.0.21->-r transitive.in (line 2))
    Downloading https://acc-py-repo.cern.ch/repository/vr-py-releases/resources/lit/lit-16.0.6.tar.gz (153 kB)
       ━━━━━━━━━━━━━━━━━━━━━━━━━━━━━━━━━━━━━━━━ 153.7/153.7 kB 25.2 MB/s eta 0:00:00
    Installing build dependencies: started
    Installing build dependencies: finished with status 'done'
    Getting requirements to build wheel: started
    Getting requirements to build wheel: finished with status 'done'
    Installing backend dependencies: started
    Installing backend dependencies: finished with status 'done'
    Preparing metadata (pyproject.toml): started
    Preparing metadata (pyproject.toml): finished with status 'done'
  Collecting pandas>=0.17 (from Py-BOBYQA->cern-sps-spill-ucap==0.0.21->-r transitive.in (line 2))
    Obtaining dependency information for pandas>=0.17 from https://acc-py-repo.cern.ch/repository/vr-py-releases/resources/pandas/pandas-2.0.3-cp39-cp39-manylinux_2_17_x86_64.manylinux2014_x86_64.whl.metadata
    Downloading https://acc-py-repo.cern.ch/repository/vr-py-releases/resources/pandas/pandas-2.0.3-cp39-cp39-manylinux_2_17_x86_64.manylinux2014_x86_64.whl.metadata (18 kB)
  Collecting gym<0.22,>=0.11 (from cernml-coi->acc-geoff4ucap->cern-sps-spill-ucap==0.0.21->-r transitive.in (line 2))
    Obtaining dependency information for gym<0.22,>=0.11 from https://acc-py-repo.cern.ch/repository/vr-py-releases/resources/gym/gym-0.21.0-py3-none-any.whl.metadata
    Downloading https://acc-py-repo.cern.ch/repository/vr-py-releases/resources/gym/gym-0.21.0-py3-none-any.whl.metadata (2.2 kB)
  Collecting python-dateutil>=2.8.2 (from pandas>=0.17->Py-BOBYQA->cern-sps-spill-ucap==0.0.21->-r transitive.in (line 2))
    Downloading https://acc-py-repo.cern.ch/repository/vr-py-releases/resources/python-dateutil/python_dateutil-2.8.2-py2.py3-none-any.whl (247 kB)
       ━━━━━━━━━━━━━━━━━━━━━━━━━━━━━━━━━━━━━━━━ 247.7/247.7 kB 30.5 MB/s eta 0:00:00
  Collecting pytz>=2020.1 (from pandas>=0.17->Py-BOBYQA->cern-sps-spill-ucap==0.0.21->-r transitive.in (line 2))
    Downloading https://acc-py-repo.cern.ch/repository/vr-py-releases/resources/pytz/pytz-2023.3-py2.py3-none-any.whl (502 kB)
       ━━━━━━━━━━━━━━━━━━━━━━━━━━━━━━━━━━━━━━━━ 502.3/502.3 kB 19.9 MB/s eta 0:00:00
  Collecting tzdata>=2022.1 (from pandas>=0.17->Py-BOBYQA->cern-sps-spill-ucap==0.0.21->-r transitive.in (line 2))
    Downloading https://acc-py-repo.cern.ch/repository/vr-py-releases/resources/tzdata/tzdata-2023.3-py2.py3-none-any.whl (341 kB)
       ━━━━━━━━━━━━━━━━━━━━━━━━━━━━━━━━━━━━━━━━ 341.8/341.8 kB 26.6 MB/s eta 0:00:00
  Collecting opt-einsum>=2.3.2 (from pyro-ppl>=1.8.4->botorch->cern-sps-spill-ucap==0.0.21->-r transitive.in (line 2))
    Downloading https://acc-py-repo.cern.ch/repository/vr-py-releases/resources/opt-einsum/opt_einsum-3.3.0-py3-none-any.whl (65 kB)
       ━━━━━━━━━━━━━━━━━━━━━━━━━━━━━━━━━━━━━━━━ 65.5/65.5 kB 12.1 MB/s eta 0:00:00
  Collecting pyro-api>=0.1.1 (from pyro-ppl>=1.8.4->botorch->cern-sps-spill-ucap==0.0.21->-r transitive.in (line 2))
    Downloading https://acc-py-repo.cern.ch/repository/vr-py-releases/resources/pyro-api/pyro_api-0.1.2-py3-none-any.whl (11 kB)
  Collecting tqdm>=4.36 (from pyro-ppl>=1.8.4->botorch->cern-sps-spill-ucap==0.0.21->-r transitive.in (line 2))
    Downloading https://acc-py-repo.cern.ch/repository/vr-py-releases/resources/tqdm/tqdm-4.65.0-py3-none-any.whl (77 kB)
       ━━━━━━━━━━━━━━━━━━━━━━━━━━━━━━━━━━━━━━━━ 77.1/77.1 kB 14.7 MB/s eta 0:00:00
  Collecting joblib>=1.1.1 (from scikit-learn->gpytorch->cern-sps-spill-ucap==0.0.21->-r transitive.in (line 2))
    Obtaining dependency information for joblib>=1.1.1 from https://acc-py-repo.cern.ch/repository/vr-py-releases/resources/joblib/joblib-1.3.1-py3-none-any.whl.metadata
    Downloading https://acc-py-repo.cern.ch/repository/vr-py-releases/resources/joblib/joblib-1.3.1-py3-none-any.whl.metadata (5.4 kB)
  Collecting threadpoolctl>=2.0.0 (from scikit-learn->gpytorch->cern-sps-spill-ucap==0.0.21->-r transitive.in (line 2))
    Obtaining dependency information for threadpoolctl>=2.0.0 from https://acc-py-repo.cern.ch/repository/vr-py-releases/resources/threadpoolctl/threadpoolctl-3.2.0-py3-none-any.whl.metadata
    Downloading https://acc-py-repo.cern.ch/repository/vr-py-releases/resources/threadpoolctl/threadpoolctl-3.2.0-py3-none-any.whl.metadata (10.0 kB)
  Collecting pyaml>=16.9 (from scikit-optimize->acc-geoff4ucap->cern-sps-spill-ucap==0.0.21->-r transitive.in (line 2))
    Obtaining dependency information for pyaml>=16.9 from https://acc-py-repo.cern.ch/repository/vr-py-releases/resources/pyaml/pyaml-23.7.0-py3-none-any.whl.metadata
    Downloading https://acc-py-repo.cern.ch/repository/vr-py-releases/resources/pyaml/pyaml-23.7.0-py3-none-any.whl.metadata (10.0 kB)
  Collecting mpmath>=0.19 (from sympy->torch->cern-sps-spill-ucap==0.0.21->-r transitive.in (line 2))
    Downloading https://acc-py-repo.cern.ch/repository/vr-py-releases/resources/mpmath/mpmath-1.3.0-py3-none-any.whl (536 kB)
       ━━━━━━━━━━━━━━━━━━━━━━━━━━━━━━━━━━━━━━━━ 536.2/536.2 kB 42.8 MB/s eta 0:00:00
  Collecting cloudpickle>=1.2.0 (from gym<0.22,>=0.11->cernml-coi->acc-geoff4ucap->cern-sps-spill-ucap==0.0.21->-r transitive.in (line 2))
    Downloading https://acc-py-repo.cern.ch/repository/vr-py-releases/resources/cloudpickle/cloudpickle-2.2.1-py3-none-any.whl (25 kB)
  Collecting PyYAML (from pyaml>=16.9->scikit-optimize->acc-geoff4ucap->cern-sps-spill-ucap==0.0.21->-r transitive.in (line 2))
    Obtaining dependency information for PyYAML from https://acc-py-repo.cern.ch/repository/vr-py-releases/resources/pyyaml/PyYAML-6.0.1-cp39-cp39-manylinux_2_17_x86_64.manylinux2014_x86_64.whl.metadata
    Downloading https://acc-py-repo.cern.ch/repository/vr-py-releases/resources/pyyaml/PyYAML-6.0.1-cp39-cp39-manylinux_2_17_x86_64.manylinux2014_x86_64.whl.metadata (2.1 kB)
  Collecting six>=1.5 (from python-dateutil>=2.8.2->pandas>=0.17->Py-BOBYQA->cern-sps-spill-ucap==0.0.21->-r transitive.in (line 2))
    Downloading https://acc-py-repo.cern.ch/repository/vr-py-releases/resources/six/six-1.16.0-py2.py3-none-any.whl (11 kB)
  Downloading https://acc-py-repo.cern.ch/repository/vr-py-releases/resources/cern-sps-spill-ucap/cern_sps_spill_ucap-0.0.21-py3-none-any.whl (17 kB)
  Downloading https://acc-py-repo.cern.ch/repository/vr-py-releases/resources/pyrda3/pyrda3-0.2.0-cp39-cp39-manylinux_2_17_x86_64.manylinux2014_x86_64.whl (34.6 MB)
     ━━━━━━━━━━━━━━━━━━━━━━━━━━━━━━━━━━━━━━━━ 34.6/34.6 MB 18.6 MB/s eta 0:00:00
  Downloading https://acc-py-repo.cern.ch/repository/vr-py-releases/resources/numpy/numpy-1.25.1-cp39-cp39-manylinux_2_17_x86_64.manylinux2014_x86_64.whl (17.7 MB)
     ━━━━━━━━━━━━━━━━━━━━━━━━━━━━━━━━━━━━━━━━ 17.7/17.7 MB 33.6 MB/s eta 0:00:00
  Downloading https://acc-py-repo.cern.ch/repository/vr-py-releases/resources/acc-geoff4ucap/acc_geoff4ucap-0.1.24-py3-none-any.whl (15 kB)
  Downloading https://acc-py-repo.cern.ch/repository/vr-py-releases/resources/cernml-coi-utils/cernml_coi_utils-0.2.12-py3-none-any.whl (33 kB)
  Downloading https://acc-py-repo.cern.ch/repository/vr-py-releases/resources/cernml-coi/cernml_coi-0.8.14-py3-none-any.whl (47 kB)
     ━━━━━━━━━━━━━━━━━━━━━━━━━━━━━━━━━━━━━━━━ 48.0/48.0 kB 11.5 MB/s eta 0:00:00
  Downloading https://acc-py-repo.cern.ch/repository/vr-py-releases/resources/pandas/pandas-2.0.3-cp39-cp39-manylinux_2_17_x86_64.manylinux2014_x86_64.whl (12.4 MB)
     ━━━━━━━━━━━━━━━━━━━━━━━━━━━━━━━━━━━━━━━━ 12.4/12.4 MB 44.8 MB/s eta 0:00:00
  Downloading https://acc-py-repo.cern.ch/repository/vr-py-releases/resources/pyro-ppl/pyro_ppl-1.8.5-py3-none-any.whl (732 kB)
     ━━━━━━━━━━━━━━━━━━━━━━━━━━━━━━━━━━━━━━━━ 732.5/732.5 kB 47.4 MB/s eta 0:00:00
  Downloading https://acc-py-repo.cern.ch/repository/vr-py-releases/resources/scipy/scipy-1.11.1-cp39-cp39-manylinux_2_17_x86_64.manylinux2014_x86_64.whl (36.5 MB)
     ━━━━━━━━━━━━━━━━━━━━━━━━━━━━━━━━━━━━━━━━ 36.5/36.5 MB 15.8 MB/s eta 0:00:00
  Downloading https://acc-py-repo.cern.ch/repository/vr-py-releases/resources/cernml-extremum-seeking/cernml_extremum_seeking-3.0.3-py3-none-any.whl (10 kB)
  Downloading https://acc-py-repo.cern.ch/repository/vr-py-releases/resources/filelock/filelock-3.12.2-py3-none-any.whl (10 kB)
  Downloading https://acc-py-repo.cern.ch/repository/vr-py-releases/resources/multipledispatch/multipledispatch-1.0.0-py3-none-any.whl (12 kB)
  Downloading https://acc-py-repo.cern.ch/repository/vr-py-releases/resources/scikit-learn/scikit_learn-1.3.0-cp39-cp39-manylinux_2_17_x86_64.manylinux2014_x86_64.whl (10.9 MB)
     ━━━━━━━━━━━━━━━━━━━━━━━━━━━━━━━━━━━━━━━━ 10.9/10.9 MB 42.8 MB/s eta 0:00:00
  Downloading https://acc-py-repo.cern.ch/repository/vr-py-releases/resources/gym/gym-0.21.0-py3-none-any.whl (1.6 MB)
     ━━━━━━━━━━━━━━━━━━━━━━━━━━━━━━━━━━━━━━━━ 1.6/1.6 MB 47.6 MB/s eta 0:00:00
  Downloading https://acc-py-repo.cern.ch/repository/vr-py-releases/resources/joblib/joblib-1.3.1-py3-none-any.whl (301 kB)
     ━━━━━━━━━━━━━━━━━━━━━━━━━━━━━━━━━━━━━━━━ 302.0/302.0 kB 36.7 MB/s eta 0:00:00
  Downloading https://acc-py-repo.cern.ch/repository/vr-py-releases/resources/pyaml/pyaml-23.7.0-py3-none-any.whl (17 kB)
  Downloading https://acc-py-repo.cern.ch/repository/vr-py-releases/resources/threadpoolctl/threadpoolctl-3.2.0-py3-none-any.whl (15 kB)
  Downloading https://acc-py-repo.cern.ch/repository/vr-py-releases/resources/cmake/cmake-3.27.0-py2.py3-none-manylinux2014_x86_64.manylinux_2_17_x86_64.whl (26.0 MB)
     ━━━━━━━━━━━━━━━━━━━━━━━━━━━━━━━━━━━━━━━━ 26.0/26.0 MB 20.5 MB/s eta 0:00:00
  Downloading https://acc-py-repo.cern.ch/repository/vr-py-releases/resources/setuptools/setuptools-68.0.0-py3-none-any.whl (804 kB)
     ━━━━━━━━━━━━━━━━━━━━━━━━━━━━━━━━━━━━━━━━ 804.0/804.0 kB 43.4 MB/s eta 0:00:00
  Downloading https://acc-py-repo.cern.ch/repository/vr-py-releases/resources/pyyaml/PyYAML-6.0.1-cp39-cp39-manylinux_2_17_x86_64.manylinux2014_x86_64.whl (738 kB)
     ━━━━━━━━━━━━━━━━━━━━━━━━━━━━━━━━━━━━━━━━ 738.9/738.9 kB 43.0 MB/s eta 0:00:00

#
# This file is autogenerated by pip-compile with Python 3.9
# by the following command:
#
#    pip-compile --allow-unsafe --pre transitive.in
#
--index-url https://acc-py-repo.cern.ch/repository/vr-py-releases/simple
--trusted-host acc-py-repo.cern.ch

acc-geoff4ucap==0.1.24
    # via cern-sps-spill-ucap
botorch==0.8.5
    # via cern-sps-spill-ucap
cern-sps-spill-ucap==0.0.21
    # via -r transitive.in
cernml-coi==0.8.14
    # via
    #   acc-geoff4ucap
    #   cernml-coi-utils
cernml-coi-utils==0.2.12
    # via
    #   acc-geoff4ucap
    #   cern-sps-spill-ucap
cernml-extremum-seeking==3.0.3
    # via acc-geoff4ucap
certifi==2021.10.8
    # via
    #   requests
    #   ucap-python-server
chardet==3.0.4
    # via
    #   requests
    #   ucap-python-server
click==8.0.4
    # via
    #   flask
    #   ucap-python-server
cloudpickle==2.2.1
    # via gym
cmake==3.27.0
    # via triton
filelock==3.12.2
    # via
    #   torch
    #   triton
flask==1.1.2
    # via ucap-python-server
gpytorch==1.10
    # via
    #   botorch
    #   cern-sps-spill-ucap
gym==0.21.0
    # via cernml-coi
idna==2.10
    # via
    #   requests
    #   ucap-python-server
importlib-metadata==4.11.3
    # via
    #   cernml-coi
    #   ucap-python-server
itsdangerous==2.0.1
    # via
    #   flask
    #   ucap-python-server
jinja2==3.0.3
    # via
    #   flask
    #   torch
    #   ucap-python-server
joblib==1.3.1
    # via
    #   scikit-learn
    #   scikit-optimize
linear-operator==0.4.0
    # via
    #   botorch
    #   gpytorch
lit==16.0.6
    # via triton
markupsafe==2.0.1
    # via
    #   jinja2
    #   ucap-python-server
mpmath==1.3.0
    # via sympy
multipledispatch==1.0.0
    # via botorch
networkx==3.1
    # via torch
numpy==1.25.1
    # via
    #   acc-geoff4ucap
    #   cern-sps-spill-ucap
    #   cernml-coi
    #   cernml-extremum-seeking
    #   gym
    #   opt-einsum
    #   pandas
    #   py-bobyqa
    #   pyrda3
    #   pyro-ppl
    #   scikit-learn
    #   scikit-optimize
    #   scipy
    #   ucap
nvidia-cublas-cu11==11.10.3.66
    # via
    #   nvidia-cudnn-cu11
    #   nvidia-cusolver-cu11
    #   torch
nvidia-cuda-cupti-cu11==11.7.101
    # via torch
nvidia-cuda-nvrtc-cu11==11.7.99
    # via torch
nvidia-cuda-runtime-cu11==11.7.99
    # via torch
nvidia-cudnn-cu11==8.5.0.96
    # via torch
nvidia-cufft-cu11==10.9.0.58
    # via torch
nvidia-curand-cu11==10.2.10.91
    # via torch
nvidia-cusolver-cu11==11.4.0.1
    # via torch
nvidia-cusparse-cu11==11.7.4.91
    # via torch
nvidia-nccl-cu11==2.14.3
    # via torch
nvidia-nvtx-cu11==11.7.91
    # via torch
opt-einsum==3.3.0
    # via pyro-ppl
pandas==2.0.3
    # via py-bobyqa
py-bobyqa==1.4
    # via
    #   acc-geoff4ucap
    #   cern-sps-spill-ucap
pyaml==23.7.0
    # via scikit-optimize
pyrda3==0.2.0
    # via ucap
pyro-api==0.1.2
    # via pyro-ppl
pyro-ppl==1.8.5
    # via botorch
python-dateutil==2.8.2
    # via pandas
pytz==2023.3
    # via pandas
pyyaml==6.0.1
    # via pyaml
requests==2.25.0
    # via ucap-python-server
scikit-learn==1.3.0
    # via
    #   gpytorch
    #   scikit-optimize
scikit-optimize==0.9.0
    # via acc-geoff4ucap
scipy==1.11.1
    # via
    #   botorch
    #   cernml-coi
    #   linear-operator
    #   py-bobyqa
    #   scikit-learn
    #   scikit-optimize
setproctitle==1.1.10
    # via ucap-python-server
six==1.16.0
    # via python-dateutil
sympy==1.12
    # via torch
threadpoolctl==3.2.0
    # via scikit-learn
torch==2.0.1
    # via
    #   botorch
    #   cern-sps-spill-ucap
    #   linear-operator
    #   pyro-ppl
    #   triton
tqdm==4.65.0
    # via pyro-ppl
triton==2.0.0
    # via torch
typing-extensions==4.1.1
    # via
    #   cernml-coi-utils
    #   torch
    #   ucap-python-server
tzdata==2023.3
    # via pandas
ucap==3.2.1
    # via
    #   acc-geoff4ucap
    #   cern-sps-spill-ucap
    #   ucap-python-server
ucap-python-server==3.2.1
    # via -r transitive.in
urllib3==1.26.9
    # via
    #   requests
    #   ucap-python-server
werkzeug==2.0.3
    # via
    #   flask
    #   ucap-python-server
wheel==0.40.0
    # via
    #   nvidia-cublas-cu11
    #   nvidia-cuda-cupti-cu11
    #   nvidia-cuda-runtime-cu11
    #   nvidia-curand-cu11
    #   nvidia-cusparse-cu11
    #   nvidia-nvtx-cu11
zipp==3.7.0
    # via
    #   importlib-metadata
    #   ucap-python-server

# The following packages are considered to be unsafe in a requirements file:
setuptools==68.0.0
    # via
    #   nvidia-cublas-cu11
    #   nvidia-cuda-cupti-cu11
    #   nvidia-cuda-runtime-cu11
    #   nvidia-curand-cu11
    #   nvidia-cusparse-cu11
    #   nvidia-nvtx-cu11
